{
    "liveServer.settings.port": 4500,
    "liveServer.settings.root": "/dev",
    "liveServer.settings.CustomBrowser" : "chrome",
    "liveServer.settings.AdvanceCustomBrowserCmdLine": "chrome --incognito --remote-debugging-port=9222",
    "liveServer.settings.NoBrowser" : false,
    "liveServer.settings.ignoreFiles" : [
            ".vscode/**",
            "**/*.scss",
            "**/*.sass"
    ]

}