
<svg width="81px" height="80px" viewBox="0 0 81 80" version="1.1" xmlns="http://www.w3.org/2000/svg" xmlns:xlink="http://www.w3.org/1999/xlink">
    <!-- Generator: Sketch 51.2 (57519) - http://www.bohemiancoding.com/sketch -->
    <desc>Created with Sketch.</desc>
    <defs></defs>
    <g id="Page-1" stroke="none" stroke-width="1" fill="none" fill-rule="evenodd">
        <g id="noun_tuscany_1405406" fill="#000000" fill-rule="nonzero">
            <path d="M80.144,25.984 C80.144,11.414 75.252,0 69.007,0 C62.762,0 57.87,11.414 57.87,25.984 C57.87,39.74 62.231,50.677 67.974,51.857 L67.942,62.027 C61.349,60.167 52.223,58.426 41.233,58.429 L41.241,55.819 C47.463,54.694 52.206,42.865 52.206,27.957 C52.207,12.281 46.963,0 40.269,0 C33.575,0 28.331,12.281 28.331,27.958 C28.331,42.823 33.047,54.627 39.242,55.811 L39.234,58.443 C31.091,58.603 21.984,59.753 12.178,62.499 L12.211,51.869 C17.986,50.759 22.381,39.793 22.381,25.985 C22.38,11.414 17.488,0 11.243,0 C4.998,0 0.106,11.414 0.106,25.984 C0.106,39.74 4.467,50.677 10.21,51.857 L10.176,63.08 C7.104,64 3.974,65.062 0.778,66.319 C0.264,66.521 0.011,67.102 0.214,67.616 C0.369,68.01 0.746,68.25 1.145,68.25 C1.267,68.25 1.391,68.228 1.511,68.18 C4.452,67.023 7.337,66.03 10.17,65.164 L10.153,70.583 C10.152,71.135 10.598,71.584 11.15,71.586 C11.151,71.586 11.152,71.586 11.153,71.586 C11.704,71.586 12.151,71.14 12.153,70.589 L12.172,64.581 C21.994,61.777 31.104,60.603 39.228,60.438 L39.17,78.997 C39.168,79.549 39.615,79.998 40.167,80 C40.168,80 40.169,80 40.17,80 C40.721,80 41.168,79.554 41.17,79.003 L41.228,60.423 C52.32,60.417 61.464,62.223 67.937,64.095 L67.917,70.608 C67.915,71.16 68.362,71.609 68.914,71.611 C68.915,71.611 68.916,71.611 68.917,71.611 C69.468,71.611 69.915,71.165 69.917,70.614 L69.935,64.701 C75.452,66.448 78.571,68.076 78.67,68.13 C79.155,68.392 79.762,68.211 80.024,67.724 C80.286,67.238 80.105,66.632 79.619,66.37 C79.513,66.313 76.049,64.497 69.941,62.615 L69.975,51.868 C75.749,50.758 80.144,39.792 80.144,25.984 Z M30.331,27.958 C30.331,12.431 35.469,2 40.269,2 C45.069,2 50.207,12.431 50.207,27.958 C50.207,42.432 45.742,52.474 41.248,53.77 L41.343,23.232 C41.345,22.68 40.898,22.231 40.346,22.229 C40.345,22.229 40.344,22.229 40.343,22.229 C39.792,22.229 39.345,22.675 39.343,23.226 L39.248,53.756 C34.769,52.411 30.331,42.388 30.331,27.958 Z M2.106,25.984 C2.106,11.637 6.831,2 11.243,2 C15.655,2 20.38,11.637 20.38,25.984 C20.38,39.278 16.323,48.513 12.217,49.799 L12.305,21.522 C12.306,20.97 11.86,20.521 11.308,20.519 C11.307,20.519 11.306,20.519 11.305,20.519 C10.754,20.519 10.307,20.965 10.305,21.516 L10.217,49.778 C6.129,48.43 2.106,39.222 2.106,25.984 Z M59.87,25.984 C59.87,11.637 64.594,2 69.007,2 C73.42,2 78.144,11.637 78.144,25.984 C78.144,39.279 74.087,48.514 69.981,49.799 L70.069,21.546 C70.071,20.994 69.624,20.545 69.072,20.543 C69.071,20.543 69.07,20.543 69.069,20.543 C68.518,20.543 68.071,20.989 68.069,21.54 L67.98,49.778 C63.892,48.43 59.87,39.221 59.87,25.984 Z" id="Shape"></path>
        </g>
    </g>
</svg>